%YAML 1.1
%TAG !u! tag:unity3d.com,2011:
--- !u!162 &1
EditorUserSettings:
  m_ObjectHideFlags: 0
  serializedVersion: 4
  m_ConfigSettings:
    RecentlyUsedSceneGuid-0:
      value: 5a5757560101590a5d0c0e24427b5d44434e4c7a7b7a23677f2b4565b7b5353a
      flags: 0
    RecentlyUsedSceneGuid-1:
      value: 5605560300545f5e090b597a157b5c444e161c7b7b717f6028784964e3b53139
      flags: 0
    RecentlyUsedSceneGuid-2:
      value: 5208525255050b0b0c0a5a2640205b44134e4a7a757d7331742a4e67bab6673b
      flags: 0
    RecentlyUsedSceneGuid-3:
      value: 50095604550551025f5f5a2312770e144f4f1a2b757f74342e784e62e7b26461
      flags: 0
    RecentlyUsedSceneGuid-4:
      value: 0155055757075c5f0b0d087615720d44424f1e2f282d7131747b4b31bbb1373c
      flags: 0
    RecentlyUsedSceneGuid-5:
      value: 535304040457510b0c0a082446260d444116482c757920317d2f4c66b1b8616c
      flags: 0
    RecentlyUsedSceneGuid-6:
      value: 505050045400510c5c570d7016275a4441154a792a7075367b7e1963b3b03761
      flags: 0
    vcSharedLogLevel:
      value: 0d5e400f0650
      flags: 0
  m_VCAutomaticAdd: 1
  m_VCDebugCom: 0
  m_VCDebugCmd: 0
  m_VCDebugOut: 0
  m_SemanticMergeMode: 2
  m_DesiredImportWorkerCount: 4
  m_StandbyImportWorkerCount: 2
  m_IdleImportWorkerShutdownDelay: 60000
  m_VCShowFailedCheckout: 1
  m_VCOverwriteFailedCheckoutAssets: 1
  m_VCProjectOverlayIcons: 1
  m_VCHierarchyOverlayIcons: 1
  m_VCOtherOverlayIcons: 1
  m_VCAllowAsyncUpdate: 1
  m_ArtifactGarbageCollection: 1
